<?xml version="1.0" encoding="UTF-8" standalone="no"?>
<svg
   xmlns:i="http://ns.adobe.com/AdobeIllustrator/10.0/"
   xmlns:dc="http://purl.org/dc/elements/1.1/"
   xmlns:cc="http://creativecommons.org/ns#"
   xmlns:rdf="http://www.w3.org/1999/02/22-rdf-syntax-ns#"
   xmlns:svg="http://www.w3.org/2000/svg"
   xmlns="http://www.w3.org/2000/svg"
   xmlns:sodipodi="http://sodipodi.sourceforge.net/DTD/sodipodi-0.dtd"
   xmlns:inkscape="http://www.inkscape.org/namespaces/inkscape"
   width="1010"
   height="146.367"
   viewBox="0 0 267.22916 38.726271"
   version="1.1"
   id="svg2368"
   inkscape:version="1.0.1 (3bc2e813f5, 2020-09-07)"
   sodipodi:docname="mdcoinlogosingledark.svg">
  <defs
     id="defs2362">
    <filter
       inkscape:collect="always"
       style="color-interpolation-filters:sRGB"
       id="filter3270"
       x="-6.7499997e-05"
       width="1.0001349"
       y="-6.7499997e-05"
       height="1.0001349">
      <feGaussianBlur
         inkscape:collect="always"
         stdDeviation="0.001125"
         id="feGaussianBlur3272" />
    </filter>
  </defs>
  <sodipodi:namedview
     id="base"
     pagecolor="#ffffff"
     bordercolor="#666666"
     borderopacity="1.0"
     inkscape:pageopacity="0.0"
     inkscape:pageshadow="2"
     inkscape:zoom="0.7"
     inkscape:cx="526.7713"
     inkscape:cy="254.47433"
     inkscape:document-units="mm"
     inkscape:current-layer="layer1"
     inkscape:document-rotation="0"
     showgrid="false"
     inkscape:window-width="1600"
     inkscape:window-height="836"
     inkscape:window-x="0"
     inkscape:window-y="27"
     inkscape:window-maximized="1"
     units="px" />
  <metadata
     id="metadata2365">
    <rdf:RDF>
      <cc:Work
         rdf:about="">
        <dc:format>image/svg+xml</dc:format>
        <dc:type
           rdf:resource="http://purl.org/dc/dcmitype/StillImage" />
        <dc:title />
      </cc:Work>
    </rdf:RDF>
  </metadata>
  <g
     inkscape:label="Layer 1"
     inkscape:groupmode="layer"
     id="layer1">
    <g
       aria-label="MDCO  IN    2021"
       transform="scale(0.95132969,1.0511603)"
       id="text8338"
       style="font-style:normal;font-variant:normal;font-weight:normal;font-stretch:normal;font-size:12.0357px;line-height:1.25;font-family:Monoton;-inkscape-font-specification:Monoton;letter-spacing:0px;word-spacing:0px;mix-blend-mode:normal;fill:#ffffff;fill-opacity:1;stroke:none;stroke-width:0.300893">
      <path
         d="m 69.721406,21.580105 1.015517,-1.918197 v 10.437251 h -1.015517 z m 2.031033,-3.892813 1.015516,-1.918197 v 14.330064 h -1.015516 z m 2.031033,-3.836395 1.015516,-1.932302 v 18.180564 h -1.015516 z m -6.812423,7.249659 -0.57828,-1.05783 6.99578,-13.3004436 h 1.142456 z M 65.800385,18.886166 65.208,17.814232 71.075428,6.7422824 h 1.15656 z m -6.798319,0.888577 1.015517,1.918197 v 8.406219 h -1.015517 z m -2.031032,-3.864604 1.015516,1.918197 v 12.270823 h -1.015516 z m -2.031033,-3.864604 1.015516,1.932302 v 16.121322 h -1.015516 z m 8.208757,11.960526 H 62.006302 L 53.924485,8.6745844 V 30.099159 H 52.908968 V 6.7422824 h 1.142456 z m 2.299017,0 H 64.291214 L 55.207984,6.7422824 h 1.156561 z M 75.814504,8.6745844 67.732687,24.006061 H 66.576126 L 57.507001,6.7422824 h 1.142456 L 67.168511,22.934127 75.67346,6.7422824 h 1.156561 V 30.099159 h -1.015517 z"
         style="font-style:normal;font-variant:normal;font-weight:normal;font-stretch:normal;font-size:28.8858px;font-family:Monoton;-inkscape-font-specification:Monoton;fill:#ffffff;fill-opacity:1;stroke-width:0.300893"
         id="path956" />
      <path
         d="m 85.602954,24.006061 v -11.17068 q 0,0 6.925257,0 1.678423,0 2.877297,1.650214 1.212978,1.63611 1.212978,3.935126 0,2.31312 -1.212978,3.94923 -1.198874,1.63611 -2.877297,1.63611 z m 1.015516,-1.015516 h 5.909741 q 1.255291,0 2.143868,-1.339918 0.902682,-1.339917 0.902682,-3.229906 0,-1.904093 -0.902682,-3.229906 -0.888577,-1.339918 -2.143868,-1.339918 H 86.61847 Z m -2.031033,2.031032 h 7.940774 q 2.101555,0 3.610725,-1.932302 1.523275,-1.946406 1.523275,-4.668554 0,-1.791258 -0.70522,-3.314533 -0.691115,-1.523274 -1.875884,-2.397747 -1.170665,-0.888577 -2.552896,-0.888577 h -7.940774 z m -1.015516,1.015517 V 10.804348 h 8.95629 q 1.650214,0 3.074758,1.015516 1.424544,1.015517 2.256703,2.778566 0.846264,1.748945 0.846264,3.822291 0,2.059241 -0.846264,3.822291 -0.832159,1.763049 -2.256703,2.778565 -1.424544,1.015517 -3.074758,1.015517 z m -1.015516,1.015516 h 9.971806 q 1.932302,0 3.582517,-1.15656 1.664318,-1.156561 2.651626,-3.14528 0.987307,-1.98872 0.987307,-4.330049 0,-2.327225 -0.987307,-4.315945 -0.987308,-2.002824 -2.651626,-3.159384 -1.664319,-1.1565605 -3.582517,-1.1565605 h -9.971806 z m -1.015517,1.015516 V 8.7733151 h 10.987323 q 2.200286,0 4.104379,1.2976039 1.904093,1.2835 3.032445,3.511995 1.128355,2.228494 1.128355,4.837807 0,2.609313 -1.128355,4.837807 -1.128352,2.228494 -3.032445,3.526099 -1.904093,1.283499 -4.104379,1.283499 z m -1.015516,1.015517 h 12.002839 q 1.847676,0 3.568412,-0.846264 1.720736,-0.846263 2.976027,-2.270807 1.25529,-1.424544 2.00282,-3.399159 0.76164,-1.98872 0.76164,-4.146692 0,-2.157973 -0.76164,-4.132588 -0.74753,-1.974615 -2.00282,-3.399159 Q 97.817359,9.4503261 96.096623,8.6040624 94.375887,7.7577988 92.528211,7.7577988 H 80.525372 Z m 12.002839,1.015516 H 79.509855 V 6.7422824 h 13.018356 q 2.750357,0 5.134,1.5655877 2.383639,1.5655878 3.794079,4.2595269 1.42455,2.693939 1.42455,5.853324 0,2.369538 -0.84627,4.541615 -0.83216,2.157972 -2.228491,3.72356 -1.396335,1.565588 -3.314533,2.496478 -1.904093,0.916785 -3.963335,0.916785 z"
         style="font-style:normal;font-variant:normal;font-weight:normal;font-stretch:normal;font-size:28.8858px;font-family:Monoton;-inkscape-font-specification:Monoton;fill:#ffffff;fill-opacity:1;stroke-width:0.300893"
         id="path958" />
      <path
         d="m 122.73982,14.72537 -0.83216,0.550071 q -0.76163,-1.128352 -1.98871,-1.777154 -1.21298,-0.662906 -2.63753,-0.662906 -2.31312,0 -3.94923,1.636109 -1.63611,1.63611 -1.63611,3.949231 0,2.31312 1.63611,3.94923 1.63611,1.63611 3.94923,1.63611 1.42455,0 2.63753,-0.662907 1.22708,-0.662906 1.98871,-1.791258 l 0.81806,0.592385 q -0.90268,1.325813 -2.34133,2.101555 -1.43865,0.775741 -3.10297,0.775741 -1.33991,0 -2.567,-0.521862 -1.21297,-0.521863 -2.10155,-1.41044 -0.88858,-0.888577 -1.41044,-2.101554 -0.52186,-1.227083 -0.52186,-2.567 0,-1.339918 0.52186,-2.552896 0.52186,-1.227082 1.41044,-2.115659 0.88858,-0.888577 2.10155,-1.410439 1.22709,-0.521863 2.567,-0.521863 1.67843,0 3.11707,0.789846 1.43865,0.775742 2.34133,2.11566 z m 1.67843,-1.156561 -0.84627,0.550072 q -1.04372,-1.523275 -2.70804,-2.411852 -1.65021,-0.902681 -3.58252,-0.902681 -2.07334,0 -3.82229,1.029621 -1.74894,1.015516 -2.77856,2.764461 -1.01552,1.748945 -1.01552,3.822291 0,2.073346 1.01552,3.822291 1.02962,1.748945 2.77856,2.778565 1.74895,1.015517 3.82229,1.015517 1.93231,0 3.59662,-0.902682 1.66432,-0.902681 2.70805,-2.44006 l 0.83216,0.57828 q -1.18477,1.748945 -3.07476,2.764462 -1.87589,1.015516 -4.06207,1.015516 -2.34133,0 -4.33005,-1.15656 -1.98872,-1.156561 -3.14528,-3.14528 -1.15656,-1.98872 -1.15656,-4.330049 0,-2.34133 1.15656,-4.330049 1.15656,-1.98872 3.14528,-3.14528 1.98872,-1.1565605 4.33005,-1.1565605 2.18618,0 4.06207,1.0155165 1.88999,1.015516 3.07476,2.764461 z m 1.69252,-1.128351 -0.84626,0.550071 q -1.32581,-1.946406 -3.44147,-3.0747579 -2.10156,-1.142456 -4.54162,-1.142456 -1.96051,0 -3.75177,0.7616373 -1.79125,0.7616376 -3.08886,2.0592416 -1.2835,1.2835 -2.04513,3.074758 -0.76164,1.791258 -0.76164,3.751769 0,1.960511 0.76164,3.751769 0.76163,1.791258 2.04513,3.088862 1.29761,1.2835 3.08886,2.045137 1.79126,0.761637 3.75177,0.761637 2.45417,0 4.55572,-1.142455 2.10156,-1.142456 3.42737,-3.088863 l 0.81806,0.606489 q -1.46686,2.143868 -3.79409,3.399159 -2.31312,1.241187 -5.00706,1.241187 -2.8914,0 -5.34556,-1.424544 -2.45417,-1.438648 -3.89281,-3.892813 -1.42455,-2.454164 -1.42455,-5.345565 0,-2.891401 1.42455,-5.345566 1.43864,-2.454164 3.89281,-3.878708 2.45416,-1.4386482 5.34556,-1.4386482 2.70805,0 5.03527,1.2693954 2.32723,1.2552908 3.79408,3.4132638 z m 1.66432,-1.156561 -0.84626,0.550072 q -1.6079,-2.3554341 -4.1608,-3.7235604 -2.53879,-1.3681262 -5.48661,-1.3681262 -2.36953,0 -4.54161,0.93089 -2.15797,0.9167856 -3.72356,2.4823736 -1.56559,1.565588 -2.49648,3.737664 -0.91678,2.157973 -0.91678,4.527511 0,2.369538 0.91678,4.541615 0.93089,2.157972 2.49648,3.72356 1.56559,1.565588 3.72356,2.496478 2.17208,0.916785 4.54161,0.916785 2.94782,0 5.50072,-1.38223 2.55289,-1.382231 4.16079,-3.737665 l 0.81806,0.620593 q -1.74895,2.538791 -4.51341,4.033857 -2.76446,1.480962 -5.96616,1.480962 -2.5811,0 -4.93653,-1.015517 -2.34133,-1.001412 -4.04797,-2.693939 -1.69252,-1.706632 -2.70804,-4.047961 -1.00141,-2.355434 -1.00141,-4.936538 0,-2.581104 1.00141,-4.922434 1.01552,-2.355434 2.70804,-4.0479609 1.70664,-1.7066317 4.04797,-2.7080437 2.35543,-1.0155164 4.93653,-1.0155164 3.21581,0 5.98027,1.4950658 2.76446,1.4950658 4.5134,4.0620652 z"
         style="font-style:normal;font-variant:normal;font-weight:normal;font-stretch:normal;font-size:28.8858px;font-family:Monoton;-inkscape-font-specification:Monoton;fill:#ffffff;fill-opacity:1;stroke-width:0.300893"
         id="path960" />
      <path
         d="m 137.94436,14.47149 q -1.63611,1.63611 -1.63611,3.949231 0,2.31312 1.63611,3.94923 1.63611,1.63611 3.94923,1.63611 2.31312,0 3.94923,-1.63611 1.63611,-1.63611 1.63611,-3.94923 0,-2.313121 -1.63611,-3.949231 -1.63611,-1.636109 -3.94923,-1.636109 -2.31312,0 -3.94923,1.636109 z m -2.12976,6.516231 q -0.52187,-1.227083 -0.52187,-2.567 0,-1.339918 0.52187,-2.552896 0.52186,-1.227082 1.41044,-2.115659 0.88857,-0.888577 2.10155,-1.410439 1.22708,-0.521863 2.567,-0.521863 1.33992,0 2.5529,0.521863 1.22708,0.521862 2.11566,1.410439 0.88857,0.888577 1.41043,2.115659 0.52187,1.212978 0.52187,2.552896 0,1.339917 -0.52187,2.567 -0.52186,1.212977 -1.41043,2.101554 -0.88858,0.888577 -2.11566,1.41044 -1.21298,0.521862 -2.5529,0.521862 -1.33992,0 -2.567,-0.521862 -1.21298,-0.521863 -2.10155,-1.41044 -0.88858,-0.888577 -1.41044,-2.101554 z m -0.52187,-6.389291 q -1.01551,1.748945 -1.01551,3.822291 0,2.073346 1.01551,3.822291 1.02963,1.748945 2.77857,2.778565 1.74894,1.015517 3.82229,1.015517 2.07335,0 3.82229,-1.015517 1.74895,-1.02962 2.76446,-2.778565 1.02962,-1.748945 1.02962,-3.822291 0,-2.073346 -1.02962,-3.822291 -1.01551,-1.748945 -2.76446,-2.764461 -1.74894,-1.029621 -3.82229,-1.029621 -2.07335,0 -3.82229,1.029621 -1.74894,1.015516 -2.77857,2.764461 z m -0.87447,8.15234 q -1.15656,-1.98872 -1.15656,-4.330049 0,-2.34133 1.15656,-4.330049 1.15656,-1.98872 3.14528,-3.14528 1.98872,-1.1565605 4.33005,-1.1565605 2.34133,0 4.33005,1.1565605 1.98872,1.15656 3.14528,3.14528 1.15656,1.988719 1.15656,4.330049 0,2.341329 -1.15656,4.330049 -1.15656,1.988719 -3.14528,3.14528 -1.98872,1.15656 -4.33005,1.15656 -2.34133,0 -4.33005,-1.15656 -1.98872,-1.156561 -3.14528,-3.14528 z m -1.41044,-8.081818 q -0.76163,1.791258 -0.76163,3.751769 0,1.960511 0.76163,3.751769 0.76164,1.791258 2.04514,3.088862 1.2976,1.2835 3.08886,2.045137 1.79126,0.761637 3.75177,0.761637 1.96051,0 3.75177,-0.761637 1.79126,-0.761637 3.07476,-2.045137 1.2976,-1.297604 2.05924,-3.088862 0.76164,-1.791258 0.76164,-3.751769 0,-1.960511 -0.76164,-3.751769 -0.76164,-1.791258 -2.05924,-3.074758 -1.2835,-1.297604 -3.07476,-2.0592416 -1.79126,-0.7616373 -3.75177,-0.7616373 -1.96051,0 -3.75177,0.7616373 -1.79126,0.7616376 -3.08886,2.0592416 -1.2835,1.2835 -2.04514,3.074758 z m -0.35261,9.097334 q -1.42454,-2.454164 -1.42454,-5.345565 0,-2.891401 1.42454,-5.345566 1.43865,-2.454164 3.89282,-3.878708 2.45416,-1.4386482 5.34556,-1.4386482 2.8914,0 5.34557,1.4386482 2.45416,1.424544 3.8787,3.878708 1.43865,2.454165 1.43865,5.345566 0,2.891401 -1.43865,5.345565 -1.42454,2.454165 -3.8787,3.892813 -2.45417,1.424544 -5.34557,1.424544 -2.8914,0 -5.34556,-1.424544 -2.45417,-1.438648 -3.89282,-3.892813 z m -1.52327,-9.873076 q -0.91679,2.157973 -0.91679,4.527511 0,2.369538 0.91679,4.541615 0.93089,2.157972 2.49648,3.72356 1.56558,1.565588 3.72356,2.496478 2.17207,0.916785 4.54161,0.916785 2.36954,0 4.52751,-0.916785 2.17208,-0.93089 3.73767,-2.496478 1.56558,-1.565588 2.48237,-3.72356 0.93089,-2.172077 0.93089,-4.541615 0,-2.369538 -0.93089,-4.527511 -0.91679,-2.172076 -2.48237,-3.737664 -1.56559,-1.565588 -3.73767,-2.4823736 -2.15797,-0.93089 -4.52751,-0.93089 -2.36954,0 -4.54161,0.93089 -2.15798,0.9167856 -3.72356,2.4823736 -1.56559,1.565588 -2.49648,3.737664 z m -0.93089,9.464049 q -1.00141,-2.355434 -1.00141,-4.936538 0,-2.581104 1.00141,-4.922434 1.01551,-2.355434 2.70804,-4.0479609 1.70663,-1.7066317 4.04796,-2.7080437 2.35544,-1.0155164 4.93654,-1.0155164 2.58111,0 4.92243,1.0155164 2.35544,1.001412 4.04797,2.7080437 1.70663,1.6925269 2.70804,4.0479609 1.01552,2.34133 1.01552,4.922434 0,2.581104 -1.01552,4.936538 -1.00141,2.341329 -2.70804,4.047961 -1.69253,1.692527 -4.04797,2.693939 -2.34132,1.015517 -4.92243,1.015517 -2.5811,0 -4.93654,-1.015517 -2.34133,-1.001412 -4.04796,-2.693939 -1.69253,-1.706632 -2.70804,-4.047961 z"
         style="font-style:normal;font-variant:normal;font-weight:normal;font-stretch:normal;font-size:28.8858px;font-family:Monoton;-inkscape-font-specification:Monoton;fill:#ffffff;fill-opacity:1;stroke-width:0.300893"
         id="path962" />
      <path
         d="m 169.04455,6.7422824 h 1.01551 V 30.099159 h -1.01551 z m -2.03104,0 h 1.01552 V 30.099159 h -1.01552 z m -2.03103,0 H 165.998 V 30.099159 h -1.01552 z m -2.03103,0 h 1.01552 V 30.099159 h -1.01552 z"
         style="font-style:normal;font-variant:normal;font-weight:normal;font-stretch:normal;font-size:28.8858px;font-family:Monoton;-inkscape-font-specification:Monoton;fill:#ffffff;fill-opacity:1;stroke-width:0.300893"
         id="path964" />
      <path
         d="m 189.32667,18.857957 -1.01552,-1.678423 V 6.7422824 h 1.01552 z m 2.03103,3.328637 -1.01552,-1.706632 V 6.7422824 h 1.01552 z m 2.03103,3.37095 -1.01551,-1.720736 V 6.7422824 h 1.01551 z m -14.55573,-7.574059 1.01552,1.678423 V 30.099159 H 178.833 Z m -2.03103,-3.328637 1.01551,1.706631 v 13.73768 h -1.01551 z m -2.03104,-3.370951 1.01552,1.720736 v 17.094526 h -1.01552 z m 0.35261,-4.5416146 h 1.18477 l 14.35828,23.3568766 h -1.18477 z m 2.39775,0 h 1.19887 l 14.34417,23.3568766 h -1.21297 z m 2.38364,0 h 1.18477 L 194.40425,28.448945 V 6.7422824 h 1.01552 V 30.099159 q 0,0 -1.19888,0 z m -6.14951,1.6502141 V 30.099159 H 172.7399 V 6.7422824 q 0,0 1.21298,0 l 14.31596,23.3568766 h -1.17067 z"
         style="font-style:normal;font-variant:normal;font-weight:normal;font-stretch:normal;font-size:28.8858px;font-family:Monoton;-inkscape-font-specification:Monoton;fill:#ffffff;fill-opacity:1;stroke-width:0.300893"
         id="path966" />
      <path
         d="m 210.39863,26.037094 v -1.015517 h 13.76589 v 1.015517 z m 0,2.031032 V 27.05261 h 13.76589 v 1.015516 z m 0,2.031033 v -1.015516 h 13.76589 v 1.015516 z m 1.56559,-5.641757 h -1.18477 q 0.98731,-1.339918 1.9464,-2.623418 0.9591,-1.2835 1.5938,-2.129763 0.6488,-0.860368 1.25529,-1.678423 0.60649,-0.818055 0.97321,-1.311709 0.38081,-0.493654 0.71932,-0.959099 0.33851,-0.465445 0.50776,-0.719324 0.16925,-0.267983 0.29619,-0.507758 0.14104,-0.239775 0.18336,-0.380819 0.0423,-0.155148 0.0423,-0.296192 0,-0.648802 -0.53597,-0.832159 -0.53596,-0.183357 -1.88999,-0.183357 -2.20028,0 -4.40057,0.57828 L 211.259,12.440458 q 0.35261,-0.155149 1.77715,-0.394923 1.43865,-0.253879 2.76446,-0.253879 0.80395,0 1.39634,0.09873 0.59238,0.08463 1.07193,0.310297 0.49366,0.211566 0.74753,0.634698 0.25388,0.409027 0.25388,1.015516 0,0.606489 -0.62059,1.551483 -0.62059,0.944995 -3.18759,4.372363 -2.08745,2.778565 -3.49789,4.682659 z m 2.29901,0 h -1.18477 q 5.26094,-7.080406 5.83922,-7.912566 1.18477,-1.692527 1.32582,-2.411851 0.0423,-0.197462 0.0423,-0.423132 0,-2.919609 -4.42878,-2.919609 -1.35402,0 -2.75036,0.239774 -1.39633,0.239775 -2.04513,0.47955 l -0.19747,-0.973204 q 2.41186,-0.7475325 5.00706,-0.7475325 0.90269,0 1.66432,0.1269396 0.77575,0.1128349 1.48096,0.3949229 0.70522,0.282088 1.19888,0.733429 0.49365,0.437236 0.77574,1.114247 0.29619,0.677011 0.29619,1.551483 0,0.902681 -0.88857,2.270808 -0.88858,1.368126 -5.31736,7.362493 -0.53597,0.719325 -0.81806,1.114248 z m 2.35544,0 h -1.18477 q 4.8096,-6.572648 5.83922,-8.180549 1.02962,-1.622005 1.02962,-2.708044 0,-1.325813 -0.52186,-2.284912 -0.50776,-0.959098 -1.43865,-1.4950655 -0.91679,-0.5359669 -2.03103,-0.7757417 -1.10015,-0.2397747 -2.45417,-0.2397747 -2.60931,0 -5.20452,0.7898461 l -0.21157,-1.0296208 q 2.77857,-0.8180548 5.37378,-0.8180548 1.26939,0 2.35543,0.1833571 1.08604,0.1833571 2.04514,0.6205934 0.9732,0.4231318 1.63611,1.0860383 0.67701,0.6629066 1.07193,1.6784226 0.39493,1.001412 0.39493,2.284912 0,0.916786 -0.43724,1.875885 -0.42313,0.944994 -1.77715,2.8914 -1.33992,1.946407 -4.4852,6.121308 z m 2.44006,0 h -1.18477 q 2.97603,-3.935126 4.30184,-5.909742 1.33992,-1.988719 1.74894,-3.004236 0.40903,-1.02962 0.40903,-2.115659 0,-1.38223 -0.42313,-2.496478 -0.40903,-1.1283511 -1.17067,-1.8899884 -0.74753,-0.7757416 -1.80536,-1.2976042 -1.05783,-0.5218626 -2.32722,-0.7616373 -1.25529,-0.2397747 -2.72215,-0.2397747 -2.70804,0 -5.64176,0.8462636 l -0.21156,-1.001412 q 2.97602,-0.860368 5.82511,-0.860368 2.11566,0 3.82229,0.465445 1.72074,0.4513406 2.99013,1.3681262 1.2835,0.9167857 1.97462,2.4118515 0.70522,1.4950653 0.70522,3.4555763 0,1.241187 -0.40903,2.34133 -0.39492,1.100142 -1.74894,3.117071 -1.33992,2.016928 -4.13259,5.571236 z"
         style="font-style:normal;font-variant:normal;font-weight:normal;font-stretch:normal;font-size:28.8858px;font-family:Monoton;-inkscape-font-specification:Monoton;fill:#ffffff;fill-opacity:1;stroke-width:0.300893"
         id="path968" />
      <path
         d="m 228.53689,25.049786 q -1.46686,-2.905505 -1.46686,-6.629065 0,-3.72356 1.46686,-6.629065 1.46685,-2.9055057 4.03385,-4.4851979 2.567,-1.5796921 5.78281,-1.5796921 3.2158,0 5.7828,1.5796921 2.567,1.5796922 4.03385,4.4851979 1.46686,2.905505 1.46686,6.629065 0,3.72356 -1.46686,6.629065 -1.46685,2.905505 -4.03385,4.485197 -2.567,1.579693 -5.7828,1.579693 -3.21581,0 -5.78281,-1.579693 -2.567,-1.579692 -4.03385,-4.485197 z m 13.59663,-11.480977 q 1.41044,1.734841 1.41044,4.851912 0,3.117071 -1.41044,4.866016 -1.39633,1.73484 -3.77997,1.73484 -2.38365,0 -3.79409,-1.73484 -1.39633,-1.748945 -1.39633,-4.866016 0,-3.117071 1.39633,-4.851912 1.41044,-1.748945 3.79409,-1.748945 2.38364,0 3.77997,1.748945 z m 1.43865,-1.438648 q 2.00282,2.341329 2.00282,6.29056 0,3.94923 -2.00282,6.29056 -1.98872,2.341329 -5.21862,2.341329 -3.22991,0 -5.23274,-2.341329 -1.98871,-2.34133 -1.98871,-6.29056 0,-3.949231 1.98871,-6.29056 2.00283,-2.3413295 5.23274,-2.3413295 3.2299,0 5.21862,2.3413295 z m 2.83498,0.691115 q 1.19888,2.425956 1.19888,5.599445 0,3.173489 -1.19888,5.613549 -1.18476,2.425956 -3.28632,3.737664 -2.10155,1.311709 -4.76728,1.311709 -2.66574,0 -4.76729,-1.311709 -2.10155,-1.311708 -3.30043,-3.737664 -1.18477,-2.44006 -1.18477,-5.613549 0,-3.173489 1.18477,-5.599445 1.19888,-2.44006 3.30043,-3.7517686 2.10155,-1.3117086 4.76729,-1.3117086 2.66573,0 4.76728,1.3117086 2.10156,1.3117086 3.28632,3.7517686 z m -11.12836,1.452753 q -1.10015,1.438648 -1.10015,4.146692 0,2.708044 1.10015,4.146692 1.11424,1.438648 3.07476,1.438648 1.96051,0 3.06065,-1.438648 1.11425,-1.438648 1.11425,-4.146692 0,-2.708044 -1.11425,-4.146692 -1.10014,-1.438648 -3.06065,-1.438648 -1.96052,0 -3.07476,1.438648 z m -1.43865,-1.424544 q -1.69253,2.031033 -1.69253,5.571236 0,3.540203 1.69253,5.58534 1.70663,2.031033 4.51341,2.031033 2.80677,0 4.4993,-2.031033 1.70663,-2.045137 1.70663,-5.58534 0,-3.540203 -1.70663,-5.571236 -1.69253,-2.045137 -4.4993,-2.045137 -2.80678,0 -4.51341,2.045137 z m -1.43865,-1.438648 q -2.28491,2.637522 -2.28491,7.009884 0,4.372362 2.28491,7.009884 2.29902,2.637521 5.95206,2.637521 3.65303,0 5.93795,-2.637521 2.29901,-2.637522 2.29901,-7.009884 0,-4.372362 -2.29901,-7.009884 -2.28492,-2.6375219 -5.93795,-2.6375219 -3.65304,0 -5.95206,2.6375219 z m -3.5402,2.242599 q -0.77574,2.186181 -0.77574,4.767285 0,2.581104 0.77574,4.781389 0.77574,2.186182 2.12976,3.695352 1.36813,1.50917 3.25812,2.355434 1.90409,0.846263 4.10438,0.846263 2.20028,0 4.09027,-0.846263 1.90409,-0.846264 3.25811,-2.355434 1.36813,-1.50917 2.14387,-3.695352 0.77574,-2.200285 0.77574,-4.781389 0,-2.581104 -0.77574,-4.767285 -0.77574,-2.200286 -2.14387,-3.7094561 -1.35402,-1.5091702 -3.25811,-2.3554339 -1.88999,-0.8462636 -4.09027,-0.8462636 -2.20029,0 -4.10438,0.8462636 -1.88999,0.8462637 -3.25812,2.3554339 -1.35402,1.5091701 -2.12976,3.7094561 z"
         style="font-style:normal;font-variant:normal;font-weight:normal;font-stretch:normal;font-size:28.8858px;font-family:Monoton;-inkscape-font-specification:Monoton;fill:#ffffff;fill-opacity:1;stroke-width:0.300893"
         id="path970" />
      <path
         d="m 251.59757,26.037094 v -1.015517 h 13.76589 v 1.015517 z m 0,2.031032 V 27.05261 h 13.76589 v 1.015516 z m 0,2.031033 v -1.015516 h 13.76589 v 1.015516 z m 1.56559,-5.641757 h -1.18477 q 0.98731,-1.339918 1.94641,-2.623418 0.9591,-1.2835 1.5938,-2.129763 0.6488,-0.860368 1.25529,-1.678423 0.60649,-0.818055 0.9732,-1.311709 0.38082,-0.493654 0.71932,-0.959099 0.33851,-0.465445 0.50776,-0.719324 0.16925,-0.267983 0.29619,-0.507758 0.14105,-0.239775 0.18336,-0.380819 0.0423,-0.155148 0.0423,-0.296192 0,-0.648802 -0.53596,-0.832159 -0.53597,-0.183357 -1.88999,-0.183357 -2.20029,0 -4.40057,0.57828 l -0.21157,-0.973203 q 0.35261,-0.155149 1.77716,-0.394923 1.43864,-0.253879 2.76446,-0.253879 0.80395,0 1.39633,0.09873 0.59239,0.08463 1.07194,0.310297 0.49365,0.211566 0.74753,0.634698 0.25388,0.409027 0.25388,1.015516 0,0.606489 -0.6206,1.551483 -0.62059,0.944995 -3.18759,4.372363 -2.08745,2.778565 -3.49789,4.682659 z m 2.29902,0 h -1.18477 q 5.26094,-7.080406 5.83922,-7.912566 1.18477,-1.692527 1.32581,-2.411851 0.0423,-0.197462 0.0423,-0.423132 0,-2.919609 -4.42878,-2.919609 -1.35402,0 -2.75035,0.239774 -1.39634,0.239775 -2.04514,0.47955 l -0.19746,-0.973204 q 2.41185,-0.7475325 5.00706,-0.7475325 0.90268,0 1.66432,0.1269396 0.77574,0.1128349 1.48096,0.3949229 0.70522,0.282088 1.19887,0.733429 0.49366,0.437236 0.77574,1.114247 0.2962,0.677011 0.2962,1.551483 0,0.902681 -0.88858,2.270808 -0.88858,1.368126 -5.31736,7.362493 -0.53596,0.719325 -0.81805,1.114248 z m 2.35543,0 h -1.18477 q 4.8096,-6.572648 5.83922,-8.180549 1.02962,-1.622005 1.02962,-2.708044 0,-1.325813 -0.52186,-2.284912 -0.50776,-0.959098 -1.43865,-1.4950655 -0.91678,-0.5359669 -2.03103,-0.7757417 -1.10014,-0.2397747 -2.45417,-0.2397747 -2.60931,0 -5.20452,0.7898461 l -0.21156,-1.0296208 q 2.77856,-0.8180548 5.37377,-0.8180548 1.2694,0 2.35544,0.1833571 1.08603,0.1833571 2.04513,0.6205934 0.97321,0.4231318 1.63611,1.0860383 0.67701,0.6629066 1.07194,1.6784226 0.39492,1.001412 0.39492,2.284912 0,0.916786 -0.43724,1.875885 -0.42313,0.944994 -1.77715,2.8914 -1.33992,1.946407 -4.4852,6.121308 z m 2.44006,0 h -1.18477 q 2.97603,-3.935126 4.30184,-5.909742 1.33992,-1.988719 1.74895,-3.004236 0.40903,-1.02962 0.40903,-2.115659 0,-1.38223 -0.42314,-2.496478 -0.40902,-1.1283511 -1.17066,-1.8899884 -0.74753,-0.7757416 -1.80536,-1.2976042 -1.05783,-0.5218626 -2.32723,-0.7616373 -1.25529,-0.2397747 -2.72215,-0.2397747 -2.70804,0 -5.64175,0.8462636 l -0.21157,-1.001412 q 2.97603,-0.860368 5.82511,-0.860368 2.11566,0 3.8223,0.465445 1.72073,0.4513406 2.99013,1.3681262 1.2835,0.9167857 1.97461,2.4118515 0.70522,1.4950653 0.70522,3.4555763 0,1.241187 -0.40903,2.34133 -0.39492,1.100142 -1.74894,3.117071 -1.33992,2.016928 -4.13259,5.571236 z"
         style="font-style:normal;font-variant:normal;font-weight:normal;font-stretch:normal;font-size:28.8858px;font-family:Monoton;-inkscape-font-specification:Monoton;fill:#ffffff;fill-opacity:1;stroke-width:0.300893"
         id="path972" />
      <path
         d="m 268.15612,11.819864 v -1.015516 h 10.23979 V 30.099159 H 277.3804 V 11.819864 h -1.01552 v 18.279295 h -1.01552 V 11.819864 h -1.01551 v 18.279295 h -1.01552 V 11.819864 h -1.01551 V 30.099159 H 271.2873 V 11.819864 Z m 0,-2.0310325 V 8.7733151 h 10.23979 v 1.0155164 z m 0,-2.0310327 V 6.7422824 h 10.23979 v 1.0155164 z"
         style="font-style:normal;font-variant:normal;font-weight:normal;font-stretch:normal;font-size:28.8858px;font-family:Monoton;-inkscape-font-specification:Monoton;fill:#ffffff;fill-opacity:1;stroke-width:0.300893"
         id="path974" />
    </g>
    <g
       id="g3573"
       transform="matrix(0.49290106,0,0,0.49290106,-21.033885,-3.5515842)"
       style="mix-blend-mode:normal">
      <g
         id="g8536"
         transform="matrix(1.8297526,0,0,1.8297526,81.957577,46.489493)"
         style="fill:#d6d6d6;fill-opacity:1;filter:url(#filter3270)"
         inkscape:export-xdpi="1146.4374"
         inkscape:export-ydpi="1146.4374">
        <path
           fill="#000088"
           fill-rule="evenodd"
           d="m 0,-20 a 20,20 0 0 0 0,40 20,20 0 0 0 0,-40 z m 0,2.5 a 17.5,17.5 0 0 0 0,35 17.5,17.5 0 0 0 0,-35 z"
           id="path8346"
           style="fill:#d6d6d6;fill-opacity:1" />
        <circle
           r="3.5"
           fill="#000088"
           id="circle8348"
           cx="0"
           cy="0"
           style="fill:#d6d6d6;fill-opacity:1" />
        <g
           id="g8410"
           style="fill:#d6d6d6;fill-opacity:1">
          <g
             id="g8378"
             style="fill:#d6d6d6;fill-opacity:1">
            <g
               id="g8362"
               style="fill:#d6d6d6;fill-opacity:1">
              <g
                 id="g8354"
                 style="fill:#d6d6d6;fill-opacity:1">
                <circle
                   r="0.875"
                   fill="#000088"
                   transform="rotate(7.5,-8.75,133.4992)"
                   id="circle8350"
                   cx="0"
                   cy="0"
                   style="fill:#d6d6d6;fill-opacity:1" />
                <path
                   fill="#000088"
                   d="M 0,17.5 0.6,7 C 0.6,7 0,2 0,2 0,2 -0.6,7 -0.6,7 Z"
                   id="path8352"
                   style="fill:#d6d6d6;fill-opacity:1" />
              </g>
              <g
                 id="g8360"
                 style="fill:#d6d6d6;fill-opacity:1"
                 transform="rotate(15)">
                <circle
                   r="0.875"
                   fill="#000088"
                   transform="rotate(7.5,-8.75,133.4992)"
                   id="circle8356"
                   cx="0"
                   cy="0"
                   style="fill:#d6d6d6;fill-opacity:1" />
                <path
                   fill="#000088"
                   d="M 0,17.5 0.6,7 C 0.6,7 0,2 0,2 0,2 -0.6,7 -0.6,7 Z"
                   id="path8358"
                   style="fill:#d6d6d6;fill-opacity:1" />
              </g>
            </g>
            <g
               id="g8376"
               style="fill:#d6d6d6;fill-opacity:1"
               transform="rotate(30)">
              <g
                 id="g8368"
                 style="fill:#d6d6d6;fill-opacity:1">
                <circle
                   r="0.875"
                   fill="#000088"
                   transform="rotate(7.5,-8.75,133.4992)"
                   id="circle8364"
                   cx="0"
                   cy="0"
                   style="fill:#d6d6d6;fill-opacity:1" />
                <path
                   fill="#000088"
                   d="M 0,17.5 0.6,7 C 0.6,7 0,2 0,2 0,2 -0.6,7 -0.6,7 Z"
                   id="path8366"
                   style="fill:#d6d6d6;fill-opacity:1" />
              </g>
              <g
                 id="g8374"
                 style="fill:#d6d6d6;fill-opacity:1"
                 transform="rotate(15)">
                <circle
                   r="0.875"
                   fill="#000088"
                   transform="rotate(7.5,-8.75,133.4992)"
                   id="circle8370"
                   cx="0"
                   cy="0"
                   style="fill:#d6d6d6;fill-opacity:1" />
                <path
                   fill="#000088"
                   d="M 0,17.5 0.6,7 C 0.6,7 0,2 0,2 0,2 -0.6,7 -0.6,7 Z"
                   id="path8372"
                   style="fill:#d6d6d6;fill-opacity:1" />
              </g>
            </g>
          </g>
          <g
             id="g8408"
             style="fill:#d6d6d6;fill-opacity:1"
             transform="rotate(60)">
            <g
               id="g8392"
               style="fill:#d6d6d6;fill-opacity:1">
              <g
                 id="g8384"
                 style="fill:#d6d6d6;fill-opacity:1">
                <circle
                   r="0.875"
                   fill="#000088"
                   transform="rotate(7.5,-8.75,133.4992)"
                   id="circle8380"
                   cx="0"
                   cy="0"
                   style="fill:#d6d6d6;fill-opacity:1" />
                <path
                   fill="#000088"
                   d="M 0,17.5 0.6,7 C 0.6,7 0,2 0,2 0,2 -0.6,7 -0.6,7 Z"
                   id="path8382"
                   style="fill:#d6d6d6;fill-opacity:1" />
              </g>
              <g
                 id="g8390"
                 style="fill:#d6d6d6;fill-opacity:1"
                 transform="rotate(15)">
                <circle
                   r="0.875"
                   fill="#000088"
                   transform="rotate(7.5,-8.75,133.4992)"
                   id="circle8386"
                   cx="0"
                   cy="0"
                   style="fill:#d6d6d6;fill-opacity:1" />
                <path
                   fill="#000088"
                   d="M 0,17.5 0.6,7 C 0.6,7 0,2 0,2 0,2 -0.6,7 -0.6,7 Z"
                   id="path8388"
                   style="fill:#d6d6d6;fill-opacity:1" />
              </g>
            </g>
            <g
               id="g8406"
               style="fill:#d6d6d6;fill-opacity:1"
               transform="rotate(30)">
              <g
                 id="g8398"
                 style="fill:#d6d6d6;fill-opacity:1">
                <circle
                   r="0.875"
                   fill="#000088"
                   transform="rotate(7.5,-8.75,133.4992)"
                   id="circle8394"
                   cx="0"
                   cy="0"
                   style="fill:#d6d6d6;fill-opacity:1" />
                <path
                   fill="#000088"
                   d="M 0,17.5 0.6,7 C 0.6,7 0,2 0,2 0,2 -0.6,7 -0.6,7 Z"
                   id="path8396"
                   style="fill:#d6d6d6;fill-opacity:1" />
              </g>
              <g
                 id="g8404"
                 style="fill:#d6d6d6;fill-opacity:1"
                 transform="rotate(15)">
                <circle
                   r="0.875"
                   fill="#000088"
                   transform="rotate(7.5,-8.75,133.4992)"
                   id="circle8400"
                   cx="0"
                   cy="0"
                   style="fill:#d6d6d6;fill-opacity:1" />
                <path
                   fill="#000088"
                   d="M 0,17.5 0.6,7 C 0.6,7 0,2 0,2 0,2 -0.6,7 -0.6,7 Z"
                   id="path8402"
                   style="fill:#d6d6d6;fill-opacity:1" />
              </g>
            </g>
          </g>
        </g>
        <g
           id="g8472"
           style="fill:#d6d6d6;fill-opacity:1"
           transform="rotate(120)">
          <g
             id="g8440"
             style="fill:#d6d6d6;fill-opacity:1">
            <g
               id="g8424"
               style="fill:#d6d6d6;fill-opacity:1">
              <g
                 id="g8416"
                 style="fill:#d6d6d6;fill-opacity:1">
                <circle
                   r="0.875"
                   fill="#000088"
                   transform="rotate(7.5,-8.75,133.4992)"
                   id="circle8412"
                   cx="0"
                   cy="0"
                   style="fill:#d6d6d6;fill-opacity:1" />
                <path
                   fill="#000088"
                   d="M 0,17.5 0.6,7 C 0.6,7 0,2 0,2 0,2 -0.6,7 -0.6,7 Z"
                   id="path8414"
                   style="fill:#d6d6d6;fill-opacity:1" />
              </g>
              <g
                 id="g8422"
                 style="fill:#d6d6d6;fill-opacity:1"
                 transform="rotate(15)">
                <circle
                   r="0.875"
                   fill="#000088"
                   transform="rotate(7.5,-8.75,133.4992)"
                   id="circle8418"
                   cx="0"
                   cy="0"
                   style="fill:#d6d6d6;fill-opacity:1" />
                <path
                   fill="#000088"
                   d="M 0,17.5 0.6,7 C 0.6,7 0,2 0,2 0,2 -0.6,7 -0.6,7 Z"
                   id="path8420"
                   style="fill:#d6d6d6;fill-opacity:1" />
              </g>
            </g>
            <g
               id="g8438"
               style="fill:#d6d6d6;fill-opacity:1"
               transform="rotate(30)">
              <g
                 id="g8430"
                 style="fill:#d6d6d6;fill-opacity:1">
                <circle
                   r="0.875"
                   fill="#000088"
                   transform="rotate(7.5,-8.75,133.4992)"
                   id="circle8426"
                   cx="0"
                   cy="0"
                   style="fill:#d6d6d6;fill-opacity:1" />
                <path
                   fill="#000088"
                   d="M 0,17.5 0.6,7 C 0.6,7 0,2 0,2 0,2 -0.6,7 -0.6,7 Z"
                   id="path8428"
                   style="fill:#d6d6d6;fill-opacity:1" />
              </g>
              <g
                 id="g8436"
                 style="fill:#d6d6d6;fill-opacity:1"
                 transform="rotate(15)">
                <circle
                   r="0.875"
                   fill="#000088"
                   transform="rotate(7.5,-8.75,133.4992)"
                   id="circle8432"
                   cx="0"
                   cy="0"
                   style="fill:#d6d6d6;fill-opacity:1" />
                <path
                   fill="#000088"
                   d="M 0,17.5 0.6,7 C 0.6,7 0,2 0,2 0,2 -0.6,7 -0.6,7 Z"
                   id="path8434"
                   style="fill:#d6d6d6;fill-opacity:1" />
              </g>
            </g>
          </g>
          <g
             id="g8470"
             style="fill:#d6d6d6;fill-opacity:1"
             transform="rotate(60)">
            <g
               id="g8454"
               style="fill:#d6d6d6;fill-opacity:1">
              <g
                 id="g8446"
                 style="fill:#d6d6d6;fill-opacity:1">
                <circle
                   r="0.875"
                   fill="#000088"
                   transform="rotate(7.5,-8.75,133.4992)"
                   id="circle8442"
                   cx="0"
                   cy="0"
                   style="fill:#d6d6d6;fill-opacity:1" />
                <path
                   fill="#000088"
                   d="M 0,17.5 0.6,7 C 0.6,7 0,2 0,2 0,2 -0.6,7 -0.6,7 Z"
                   id="path8444"
                   style="fill:#d6d6d6;fill-opacity:1" />
              </g>
              <g
                 id="g8452"
                 style="fill:#d6d6d6;fill-opacity:1"
                 transform="rotate(15)">
                <circle
                   r="0.875"
                   fill="#000088"
                   transform="rotate(7.5,-8.75,133.4992)"
                   id="circle8448"
                   cx="0"
                   cy="0"
                   style="fill:#d6d6d6;fill-opacity:1" />
                <path
                   fill="#000088"
                   d="M 0,17.5 0.6,7 C 0.6,7 0,2 0,2 0,2 -0.6,7 -0.6,7 Z"
                   id="path8450"
                   style="fill:#d6d6d6;fill-opacity:1" />
              </g>
            </g>
            <g
               id="g8468"
               style="fill:#d6d6d6;fill-opacity:1"
               transform="rotate(30)">
              <g
                 id="g8460"
                 style="fill:#d6d6d6;fill-opacity:1">
                <circle
                   r="0.875"
                   fill="#000088"
                   transform="rotate(7.5,-8.75,133.4992)"
                   id="circle8456"
                   cx="0"
                   cy="0"
                   style="fill:#d6d6d6;fill-opacity:1" />
                <path
                   fill="#000088"
                   d="M 0,17.5 0.6,7 C 0.6,7 0,2 0,2 0,2 -0.6,7 -0.6,7 Z"
                   id="path8458"
                   style="fill:#d6d6d6;fill-opacity:1" />
              </g>
              <g
                 id="g8466"
                 style="fill:#d6d6d6;fill-opacity:1"
                 transform="rotate(15)">
                <circle
                   r="0.875"
                   fill="#000088"
                   transform="rotate(7.5,-8.75,133.4992)"
                   id="circle8462"
                   cx="0"
                   cy="0"
                   style="fill:#d6d6d6;fill-opacity:1" />
                <path
                   fill="#000088"
                   d="M 0,17.5 0.6,7 C 0.6,7 0,2 0,2 0,2 -0.6,7 -0.6,7 Z"
                   id="path8464"
                   style="fill:#d6d6d6;fill-opacity:1" />
              </g>
            </g>
          </g>
        </g>
        <g
           id="g8534"
           style="fill:#d6d6d6;fill-opacity:1"
           transform="rotate(-120)">
          <g
             id="g8502"
             style="fill:#d6d6d6;fill-opacity:1">
            <g
               id="g8486"
               style="fill:#d6d6d6;fill-opacity:1">
              <g
                 id="g8478"
                 style="fill:#d6d6d6;fill-opacity:1">
                <circle
                   r="0.875"
                   fill="#000088"
                   transform="rotate(7.5,-8.75,133.4992)"
                   id="circle8474"
                   cx="0"
                   cy="0"
                   style="fill:#d6d6d6;fill-opacity:1" />
                <path
                   fill="#000088"
                   d="M 0,17.5 0.6,7 C 0.6,7 0,2 0,2 0,2 -0.6,7 -0.6,7 Z"
                   id="path8476"
                   style="fill:#d6d6d6;fill-opacity:1" />
              </g>
              <g
                 id="g8484"
                 style="fill:#d6d6d6;fill-opacity:1"
                 transform="rotate(15)">
                <circle
                   r="0.875"
                   fill="#000088"
                   transform="rotate(7.5,-8.75,133.4992)"
                   id="circle8480"
                   cx="0"
                   cy="0"
                   style="fill:#d6d6d6;fill-opacity:1" />
                <path
                   fill="#000088"
                   d="M 0,17.5 0.6,7 C 0.6,7 0,2 0,2 0,2 -0.6,7 -0.6,7 Z"
                   id="path8482"
                   style="fill:#d6d6d6;fill-opacity:1" />
              </g>
            </g>
            <g
               id="g8500"
               style="fill:#d6d6d6;fill-opacity:1"
               transform="rotate(30)">
              <g
                 id="g8492"
                 style="fill:#d6d6d6;fill-opacity:1">
                <circle
                   r="0.875"
                   fill="#000088"
                   transform="rotate(7.5,-8.75,133.4992)"
                   id="circle8488"
                   cx="0"
                   cy="0"
                   style="fill:#d6d6d6;fill-opacity:1" />
                <path
                   fill="#000088"
                   d="M 0,17.5 0.6,7 C 0.6,7 0,2 0,2 0,2 -0.6,7 -0.6,7 Z"
                   id="path8490"
                   style="fill:#d6d6d6;fill-opacity:1" />
              </g>
              <g
                 id="g8498"
                 style="fill:#d6d6d6;fill-opacity:1"
                 transform="rotate(15)">
                <circle
                   r="0.875"
                   fill="#000088"
                   transform="rotate(7.5,-8.75,133.4992)"
                   id="circle8494"
                   cx="0"
                   cy="0"
                   style="fill:#d6d6d6;fill-opacity:1" />
                <path
                   fill="#000088"
                   d="M 0,17.5 0.6,7 C 0.6,7 0,2 0,2 0,2 -0.6,7 -0.6,7 Z"
                   id="path8496"
                   style="fill:#d6d6d6;fill-opacity:1" />
              </g>
            </g>
          </g>
          <g
             id="g8532"
             style="fill:#d6d6d6;fill-opacity:1"
             transform="rotate(60)">
            <g
               id="g8516"
               style="fill:#d6d6d6;fill-opacity:1">
              <g
                 id="g8508"
                 style="fill:#d6d6d6;fill-opacity:1">
                <circle
                   r="0.875"
                   fill="#000088"
                   transform="rotate(7.5,-8.75,133.4992)"
                   id="circle8504"
                   cx="0"
                   cy="0"
                   style="fill:#d6d6d6;fill-opacity:1" />
                <path
                   fill="#000088"
                   d="M 0,17.5 0.6,7 C 0.6,7 0,2 0,2 0,2 -0.6,7 -0.6,7 Z"
                   id="path8506"
                   style="fill:#d6d6d6;fill-opacity:1" />
              </g>
              <g
                 id="g8514"
                 style="fill:#d6d6d6;fill-opacity:1"
                 transform="rotate(15)">
                <circle
                   r="0.875"
                   fill="#000088"
                   transform="rotate(7.5,-8.75,133.4992)"
                   id="circle8510"
                   cx="0"
                   cy="0"
                   style="fill:#d6d6d6;fill-opacity:1" />
                <path
                   fill="#000088"
                   d="M 0,17.5 0.6,7 C 0.6,7 0,2 0,2 0,2 -0.6,7 -0.6,7 Z"
                   id="path8512"
                   style="fill:#d6d6d6;fill-opacity:1" />
              </g>
            </g>
            <g
               id="g8530"
               style="fill:#d6d6d6;fill-opacity:1"
               transform="rotate(30)">
              <g
                 id="g8522"
                 style="fill:#d6d6d6;fill-opacity:1">
                <circle
                   r="0.875"
                   fill="#000088"
                   transform="rotate(7.5,-8.75,133.4992)"
                   id="circle8518"
                   cx="0"
                   cy="0"
                   style="fill:#d6d6d6;fill-opacity:1" />
                <path
                   fill="#000088"
                   d="M 0,17.5 0.6,7 C 0.6,7 0,2 0,2 0,2 -0.6,7 -0.6,7 Z"
                   id="path8520"
                   style="fill:#d6d6d6;fill-opacity:1" />
              </g>
              <g
                 id="g8528"
                 style="fill:#d6d6d6;fill-opacity:1"
                 transform="rotate(15)">
                <circle
                   r="0.875"
                   fill="#000088"
                   transform="rotate(7.5,-8.75,133.4992)"
                   id="circle8524"
                   cx="0"
                   cy="0"
                   style="fill:#d6d6d6;fill-opacity:1" />
                <path
                   fill="#000088"
                   d="M 0,17.5 0.6,7 C 0.6,7 0,2 0,2 0,2 -0.6,7 -0.6,7 Z"
                   id="path8526"
                   style="fill:#d6d6d6;fill-opacity:1" />
              </g>
            </g>
          </g>
        </g>
      </g>
      <g
         id="g9294"
         transform="matrix(1.0885262,0,0,1.202754,59.784448,-309.50999)"
         style="fill:#a80030;fill-opacity:1"
         inkscape:export-xdpi="1146.4374"
         inkscape:export-ydpi="1146.4374">
        <path
           i:knockout="Off"
           fill="#a80030"
           d="m 24.098688,297.335 c -0.787623,0.01 0.148145,0.40488 1.176693,0.56356 0.285211,-0.22246 0.541426,-0.446 0.771281,-0.66425 -0.639483,0.15662 -1.291092,0.1602 -1.947974,0.10063"
           id="path9246"
           style="fill:#a80030;fill-opacity:1;stroke-width:0.527191" />
        <path
           i:knockout="Off"
           fill="#a80030"
           d="m 28.325187,296.28114 c 0.470782,-0.64791 0.812402,-1.35646 0.933128,-2.08925 -0.105963,0.5219 -0.388012,0.97266 -0.655827,1.44925 -1.472447,0.92733 -0.139179,-0.5504 -0.0011,-1.11291 -1.58263,1.99437 -0.218257,1.19568 -0.276247,1.75291"
           id="path9248"
           style="fill:#a80030;fill-opacity:1;stroke-width:0.527191" />
        <path
           i:knockout="Off"
           fill="#a80030"
           d="m 29.887255,292.21966 c 0.09594,-1.41867 -0.278885,-0.96951 -0.404883,-0.42914 0.146551,0.0769 0.263069,1.00062 0.404883,0.42914"
           id="path9250"
           style="fill:#a80030;fill-opacity:1;stroke-width:0.527191" />
        <path
           i:knockout="Off"
           fill="#a80030"
           d="m 21.110565,272.83007 c 0.420698,0.0749 0.908878,0.1329 0.838762,0.23354 0.461821,-0.10182 0.565677,-0.19347 -0.838762,-0.23354"
           id="path9252"
           style="fill:#a80030;fill-opacity:1;stroke-width:0.527191" />
        <path
           i:knockout="Off"
           fill="#a80030"
           d="m 21.949853,273.06361 -0.295754,0.0618 0.275721,-0.0253 0.02003,-0.0365"
           id="path9254"
           style="fill:#a80030;fill-opacity:1;stroke-width:0.527191" />
        <path
           i:knockout="Off"
           fill="#a80030"
           d="m 35.060589,292.7574 c 0.04744,1.27369 -0.37167,1.89261 -0.75072,2.98705 l -0.681661,0.33899 c -0.55724,1.08287 0.05535,0.68747 -0.343728,1.54836 -0.870922,0.77341 -2.639122,2.4193 -3.205327,2.57008 -0.413846,-0.01 0.279939,-0.48819 0.370615,-0.67533 -1.164565,0.7992 -0.93471,1.19988 -2.716092,1.68648 l -0.05167,-0.11656 c -4.391508,2.06659 -10.492172,-2.02811 -10.412041,-7.61422 -0.04639,0.35427 -0.13338,0.2657 -0.230383,0.40805 -0.226692,-2.87374 1.32747,-5.7601 3.948667,-6.94048 2.563735,-1.26843 5.569257,-0.74862 7.404411,0.96422 -1.00799,-1.32115 -3.016065,-2.7219 -5.394226,-2.59221 -2.330716,0.0379 -4.51171,1.51886 -5.239233,3.12731 -1.193563,0.75125 -1.332742,2.89745 -1.852553,3.29073 -0.700639,5.14539 1.316397,7.36751 4.728911,9.98291 0.535627,0.36165 0.150775,0.41702 0.222474,0.69221 -1.133462,-0.53036 -2.170976,-1.33169 -3.025027,-2.3128 0.453386,0.66268 0.942093,1.3069 1.574196,1.81301 -1.069673,-0.36113 -2.497836,-2.5901 -2.91379,-2.68076 1.842536,3.29916 7.474526,5.78593 10.425219,4.55177 -1.365427,0.0506 -3.09936,0.0279 -4.632433,-0.5388 -0.645811,-0.3316 -1.520423,-1.01747 -1.363848,-1.14557 4.025639,1.50301 8.183074,1.13768 11.665703,-1.65381 0.886738,-0.69063 1.854662,-1.86467 2.1346,-1.88049 -0.421226,0.63369 0.07223,0.30472 -0.25147,0.86406 0.881464,-1.42394 -0.384323,-0.57991 0.912041,-2.45883 l 0.478691,0.65899 c -0.179248,-1.183 1.468229,-2.61803 1.300583,-4.48745 0.377996,-0.57148 0.421226,0.61576 0.02056,1.93057 0.556186,-1.45873 0.147089,-1.69334 0.289427,-2.89745 0.153406,0.40489 0.357435,0.83456 0.461292,1.26212 -0.362707,-1.41024 0.370616,-2.37395 0.553025,-3.19374 -0.180305,-0.0791 -0.559351,0.62315 -0.646863,-1.04174 0.01315,-0.72329 0.201914,-0.37904 0.274139,-0.55723 -0.141291,-0.0817 -0.514013,-0.63632 -0.740177,-1.69967 0.162909,-0.25041 0.438623,0.64793 0.662153,0.68429 -0.143921,-0.84509 -0.391176,-1.48984 -0.401721,-2.13881 -0.653717,-1.36542 -0.231437,0.18232 -0.760738,-0.58624 -0.695894,-2.16887 0.576747,-0.50347 0.663207,-1.48826 1.053331,1.52622 1.653802,3.89331 1.930577,4.87336 -0.210876,-1.19514 -0.550915,-2.35338 -0.96687,-3.47367 0.321061,0.1355 -0.516121,-2.45829 0.41701,-0.7407 -0.995866,-3.66135 -4.258656,-7.08283 -7.261014,-8.6876 0.366398,0.33582 0.8298,0.75758 0.664262,0.82401 -1.494062,-0.88833 -1.231521,-0.95845 -1.445561,-1.3338 -1.215177,-0.49503 -1.296364,0.0406 -2.100333,10e-4 -2.293284,-1.21677 -2.735071,-1.08761 -4.84542,-1.84886 l 0.09594,0.44916 c -1.518841,-0.50611 -1.769783,0.19088 -3.410931,0.001 -0.09965,-0.0775 0.526137,-0.28258 1.041729,-0.3569 -1.468756,0.19407 -1.400221,-0.28995 -2.837345,0.0532 0.353745,-0.24831 0.729107,-0.41331 1.106575,-0.6242 -1.197252,0.0727 -2.859489,0.69695 -2.346531,0.12872 -1.953245,0.87197 -5.422695,2.09559 -7.369614,3.92125 l -0.06115,-0.40909 c -0.8920091,1.07071 -3.8901487,3.19794 -4.1289681,4.58604 l -0.2388174,0.0554 c -0.4634022,0.78603 -0.7644286,1.67646 -1.1324082,2.48465 -0.6067971,1.03488 -0.8899006,0.39855 -0.8034405,0.56094 -1.1940891,2.42085 -1.7882356,4.45475 -2.3001381,6.12386 0.3648175,0.54563 0.00897,3.28545 0.1465511,5.47804 -0.5988887,10.83063 7.6010541,21.34548 16.5643692,23.77267 1.313763,0.47078 3.267008,0.4539 4.928718,0.50031 -1.9601,-0.56094 -2.213152,-0.29681 -4.123696,-0.96266 -1.377552,-0.6495 -1.679106,-1.39021 -2.655465,-2.2374 l 0.386433,0.68271 c -1.913708,-0.67745 -1.112904,-0.83824 -2.670228,-1.33116 l 0.412792,-0.53826 c -0.620506,-0.0474 -1.643259,-1.04491 -1.92267,-1.59897 l -0.679023,0.0269 c -0.815039,-1.00482 -1.249972,-1.73078 -1.217814,-2.29329 l -0.219311,0.39117 c -0.248308,-0.42648 -3.0002495,-3.77362 -1.5726131,-2.99444 -0.265179,-0.24146 -0.61787,-0.39381 -1.0000839,-1.08918 l 0.2904839,-0.3316 c -0.6858698,-0.884 -1.2641995,-2.01693 -1.2199154,-2.3944 0.3663976,0.49451 0.6205037,0.5873 0.8725018,0.67218 -1.734989,-4.304 -1.8325197,-0.23671 -3.1457546,-4.38097 l 0.2773033,-0.0221 c -0.2124582,-0.32214 -0.3426744,-0.66956 -0.5134846,-1.01169 l 0.1212459,-1.20463 c -1.2483898,-1.4424 -0.3490007,-6.13917 -0.1681701,-8.7145 0.1238959,-1.047 1.0422579,-2.162 1.7397333,-3.91069 l -0.4249164,-0.0727 c 0.8129289,-1.41709 4.6403419,-5.69313 6.4138169,-5.47383 0.858795,-1.07862 -0.1708,-0.004 -0.338984,-0.27519 1.886818,-1.95219 2.479911,-1.37914 3.753078,-1.73078 1.372281,-0.81451 -1.178273,0.31843 -0.527718,-0.31052 2.373944,-0.60573 1.681741,-1.37808 4.777939,-1.68542 0.32686,0.1855 -0.757574,0.2868 -1.029605,0.52772 1.976968,-0.96793 6.257241,-0.74702 9.038704,0.53669 3.224833,1.50829 6.850332,5.96464 6.993729,10.15739 l 0.16291,0.0438 c -0.08223,1.66699 0.25516,3.59493 -0.33055,5.36524 l 0.395921,-0.83876"
           id="path9256"
           style="fill:#a80030;fill-opacity:1;stroke-width:0.527191" />
        <path
           i:knockout="Off"
           fill="#a80030"
           d="m 15.499661,298.41575 -0.111244,0.55197 c 0.518231,0.7038 0.929441,1.46611 1.590013,2.01439 -0.475529,-0.92732 -0.82822,-1.31059 -1.478775,-2.56636"
           id="path9258"
           style="fill:#a80030;fill-opacity:1;stroke-width:0.527191" />
        <path
           i:knockout="Off"
           fill="#a80030"
           d="m 16.723273,298.36831 c -0.274139,-0.30367 -0.435461,-0.6685 -0.617867,-1.0312 0.173968,0.63843 0.530353,1.18723 0.860903,1.74606 l -0.243036,-0.71486"
           id="path9260"
           style="fill:#a80030;fill-opacity:1;stroke-width:0.527191" />
        <path
           i:knockout="Off"
           fill="#a80030"
           d="m 38.382426,293.66048 -0.115448,0.29101 c -0.21193,1.50672 -0.671116,2.99761 -1.373335,4.38043 0.776027,-1.45873 1.276333,-3.05456 1.488791,-4.67144"
           id="path9262"
           style="fill:#a80030;fill-opacity:1;stroke-width:0.527191" />
        <path
           i:knockout="Off"
           fill="#a80030"
           d="m 21.267141,272.45206 c 0.531937,-0.19447 1.30849,-0.107 1.874693,-0.23512 -0.737013,0.0618 -1.470338,0.0986 -2.194173,0.19089 l 0.31948,0.0442"
           id="path9264"
           style="fill:#a80030;fill-opacity:1;stroke-width:0.527191" />
        <path
           i:knockout="Off"
           fill="#a80030"
           d="m 2.5671177,282.39595 c 0.1228398,1.13559 -0.8540509,1.57684 0.2161483,0.82719 0.5746395,-1.29374 -0.2235287,-0.35693 -0.2161483,-0.82719"
           id="path9266"
           style="fill:#a80030;fill-opacity:1;stroke-width:0.527191" />
        <path
           i:knockout="Off"
           fill="#a80030"
           d="m 1.3081834,287.65418 c 0.2472518,-0.75758 0.291536,-1.21202 0.3859045,-1.65118 -0.6816606,0.87198 -0.3142071,1.05808 -0.3859045,1.65118"
           id="path9268"
           style="fill:#a80030;fill-opacity:1;stroke-width:0.527191" />
        <path
           i:knockout="Off"
           fill="#a80030"
           d="m 24.098688,297.335 c -0.787623,0.01 0.148145,0.40488 1.176693,0.56356 0.285211,-0.22246 0.541426,-0.446 0.771281,-0.66425 -0.639483,0.15662 -1.291092,0.1602 -1.947974,0.10063"
           id="path9270"
           style="fill:#a80030;fill-opacity:1;stroke-width:0.527191" />
        <path
           i:knockout="Off"
           fill="#a80030"
           d="m 28.325187,296.28114 c 0.470782,-0.64791 0.812402,-1.35646 0.933128,-2.08925 -0.105963,0.5219 -0.388012,0.97266 -0.655827,1.44925 -1.472447,0.92733 -0.139179,-0.5504 -0.0011,-1.11291 -1.58263,1.99437 -0.218257,1.19568 -0.276247,1.75291"
           id="path9272"
           style="fill:#a80030;fill-opacity:1;stroke-width:0.527191" />
        <path
           i:knockout="Off"
           fill="#a80030"
           d="m 29.887255,292.21966 c 0.09594,-1.41867 -0.278885,-0.96951 -0.404883,-0.42914 0.146551,0.0769 0.263069,1.00062 0.404883,0.42914"
           id="path9274"
           style="fill:#a80030;fill-opacity:1;stroke-width:0.527191" />
        <path
           i:knockout="Off"
           fill="#a80030"
           d="m 21.110565,272.83007 c 0.420698,0.0749 0.908878,0.1329 0.838762,0.23354 0.461821,-0.10182 0.565677,-0.19347 -0.838762,-0.23354"
           id="path9276"
           style="fill:#a80030;fill-opacity:1;stroke-width:0.527191" />
        <path
           i:knockout="Off"
           fill="#a80030"
           d="m 21.949853,273.06361 -0.295754,0.0618 0.275721,-0.0253 0.02003,-0.0365"
           id="path9278"
           style="fill:#a80030;fill-opacity:1;stroke-width:0.527191" />
        <path
           i:knockout="Off"
           fill="#a80030"
           d="m 35.060589,292.7574 c 0.04744,1.27369 -0.37167,1.89261 -0.75072,2.98705 l -0.681661,0.33899 c -0.55724,1.08287 0.05535,0.68747 -0.343728,1.54836 -0.870922,0.77341 -2.639122,2.4193 -3.205327,2.57008 -0.413846,-0.01 0.279939,-0.48819 0.370615,-0.67533 -1.164565,0.7992 -0.93471,1.19988 -2.716092,1.68648 l -0.05167,-0.11656 c -4.391508,2.06659 -10.492172,-2.02811 -10.412041,-7.61422 -0.04639,0.35427 -0.13338,0.2657 -0.230383,0.40805 -0.226692,-2.87374 1.32747,-5.7601 3.948667,-6.94048 2.563735,-1.26843 5.569257,-0.74862 7.404411,0.96422 -1.00799,-1.32115 -3.016065,-2.7219 -5.394226,-2.59221 -2.330716,0.0379 -4.51171,1.51886 -5.239233,3.12731 -1.193563,0.75125 -1.332742,2.89745 -1.852553,3.29073 -0.700639,5.14539 1.316397,7.36751 4.728911,9.98291 0.535627,0.36165 0.150775,0.41702 0.222474,0.69221 -1.133462,-0.53036 -2.170976,-1.33169 -3.025027,-2.3128 0.453386,0.66268 0.942093,1.3069 1.574196,1.81301 -1.069673,-0.36113 -2.497836,-2.5901 -2.91379,-2.68076 1.842536,3.29916 7.474526,5.78593 10.425219,4.55177 -1.365427,0.0506 -3.09936,0.0279 -4.632433,-0.5388 -0.645811,-0.3316 -1.520423,-1.01747 -1.363848,-1.14557 4.025639,1.50301 8.183074,1.13768 11.665703,-1.65381 0.886738,-0.69063 1.854662,-1.86467 2.1346,-1.88049 -0.421226,0.63369 0.07223,0.30472 -0.25147,0.86406 0.881464,-1.42394 -0.384323,-0.57991 0.912041,-2.45883 l 0.478691,0.65899 c -0.179248,-1.183 1.468229,-2.61803 1.300583,-4.48745 0.377996,-0.57148 0.421226,0.61576 0.02056,1.93057 0.556186,-1.45873 0.147089,-1.69334 0.289427,-2.89745 0.153406,0.40489 0.357435,0.83456 0.461292,1.26212 -0.362707,-1.41024 0.370616,-2.37395 0.553025,-3.19374 -0.180305,-0.0791 -0.559351,0.62315 -0.646863,-1.04174 0.01315,-0.72329 0.201914,-0.37904 0.274139,-0.55723 -0.141291,-0.0817 -0.514013,-0.63632 -0.740177,-1.69967 0.162909,-0.25041 0.438623,0.64793 0.662153,0.68429 -0.143921,-0.84509 -0.391176,-1.48984 -0.401721,-2.13881 -0.653717,-1.36542 -0.231437,0.18232 -0.760738,-0.58624 -0.695894,-2.16887 0.576747,-0.50347 0.663207,-1.48826 1.053331,1.52622 1.653802,3.89331 1.930577,4.87336 -0.210876,-1.19514 -0.550915,-2.35338 -0.96687,-3.47367 0.321061,0.1355 -0.516121,-2.45829 0.41701,-0.7407 -0.995866,-3.66135 -4.258656,-7.08283 -7.261014,-8.6876 0.366398,0.33582 0.8298,0.75758 0.664262,0.82401 -1.494062,-0.88833 -1.231521,-0.95845 -1.445561,-1.3338 -1.215177,-0.49503 -1.296364,0.0406 -2.100333,10e-4 -2.293284,-1.21677 -2.735071,-1.08761 -4.84542,-1.84886 l 0.09594,0.44916 c -1.518841,-0.50611 -1.769783,0.19088 -3.410931,0.001 -0.09965,-0.0775 0.526137,-0.28258 1.041729,-0.3569 -1.468756,0.19407 -1.400221,-0.28995 -2.837345,0.0532 0.353745,-0.24831 0.729107,-0.41331 1.106575,-0.6242 -1.197252,0.0727 -2.859489,0.69695 -2.346531,0.12872 -1.953245,0.87197 -5.422695,2.09559 -7.369614,3.92125 l -0.06115,-0.40909 c -0.8920091,1.07071 -3.8901487,3.19794 -4.1289681,4.58604 l -0.2388174,0.0554 c -0.4634022,0.78603 -0.7644286,1.67646 -1.1324082,2.48465 -0.6067971,1.03488 -0.8899006,0.39855 -0.8034405,0.56094 -1.1940891,2.42085 -1.7882356,4.45475 -2.3001381,6.12386 0.3648175,0.54563 0.00897,3.28545 0.1465511,5.47804 -0.5988887,10.83063 7.6010541,21.34548 16.5643692,23.77267 1.313763,0.47078 3.267008,0.4539 4.928718,0.50031 -1.9601,-0.56094 -2.213152,-0.29681 -4.123696,-0.96266 -1.377552,-0.6495 -1.679106,-1.39021 -2.655465,-2.2374 l 0.386433,0.68271 c -1.913708,-0.67745 -1.112904,-0.83824 -2.670228,-1.33116 l 0.412792,-0.53826 c -0.620506,-0.0474 -1.643259,-1.04491 -1.92267,-1.59897 l -0.679023,0.0269 c -0.815039,-1.00482 -1.249972,-1.73078 -1.217814,-2.29329 l -0.219311,0.39117 c -0.248308,-0.42648 -3.0002495,-3.77362 -1.5726131,-2.99444 -0.265179,-0.24146 -0.61787,-0.39381 -1.0000839,-1.08918 l 0.2904839,-0.3316 c -0.6858698,-0.884 -1.2641995,-2.01693 -1.2199154,-2.3944 0.3663976,0.49451 0.6205037,0.5873 0.8725018,0.67218 -1.734989,-4.304 -1.8325197,-0.23671 -3.1457546,-4.38097 l 0.2773033,-0.0221 c -0.2124582,-0.32214 -0.3426744,-0.66956 -0.5134846,-1.01169 l 0.1212459,-1.20463 c -1.2483898,-1.4424 -0.3490007,-6.13917 -0.1681701,-8.7145 0.1238959,-1.047 1.0422579,-2.162 1.7397333,-3.91069 l -0.4249164,-0.0727 c 0.8129289,-1.41709 4.6403419,-5.69313 6.4138169,-5.47383 0.858795,-1.07862 -0.1708,-0.004 -0.338984,-0.27519 1.886818,-1.95219 2.479911,-1.37914 3.753078,-1.73078 1.372281,-0.81451 -1.178273,0.31843 -0.527718,-0.31052 2.373944,-0.60573 1.681741,-1.37808 4.777939,-1.68542 0.32686,0.1855 -0.757574,0.2868 -1.029605,0.52772 1.976968,-0.96793 6.257241,-0.74702 9.038704,0.53669 3.224833,1.50829 6.850332,5.96464 6.993729,10.15739 l 0.16291,0.0438 c -0.08223,1.66699 0.25516,3.59493 -0.33055,5.36524 l 0.395921,-0.83876"
           id="path9280"
           style="fill:#a80030;fill-opacity:1;stroke-width:0.527191" />
        <path
           i:knockout="Off"
           fill="#a80030"
           d="m 15.499661,298.41575 -0.111244,0.55197 c 0.518231,0.7038 0.929441,1.46611 1.590013,2.01439 -0.475529,-0.92732 -0.82822,-1.31059 -1.478775,-2.56636"
           id="path9282"
           style="fill:#a80030;fill-opacity:1;stroke-width:0.527191" />
        <path
           i:knockout="Off"
           fill="#a80030"
           d="m 16.723273,298.36831 c -0.274139,-0.30367 -0.435461,-0.6685 -0.617867,-1.0312 0.173968,0.63843 0.530353,1.18723 0.860903,1.74606 l -0.243036,-0.71486"
           id="path9284"
           style="fill:#a80030;fill-opacity:1;stroke-width:0.527191" />
        <path
           i:knockout="Off"
           fill="#a80030"
           d="m 38.382426,293.66048 -0.115448,0.29101 c -0.21193,1.50672 -0.671116,2.99761 -1.373335,4.38043 0.776027,-1.45873 1.276333,-3.05456 1.488791,-4.67144"
           id="path9286"
           style="fill:#a80030;fill-opacity:1;stroke-width:0.527191" />
        <path
           i:knockout="Off"
           fill="#a80030"
           d="m 21.267141,272.45206 c 0.531937,-0.19447 1.30849,-0.107 1.874693,-0.23512 -0.737013,0.0618 -1.470338,0.0986 -2.194173,0.19089 l 0.31948,0.0442"
           id="path9288"
           style="fill:#a80030;fill-opacity:1;stroke-width:0.527191" />
        <path
           i:knockout="Off"
           fill="#a80030"
           d="m 2.5671177,282.39595 c 0.1228398,1.13559 -0.8540509,1.57684 0.2161483,0.82719 0.5746395,-1.29374 -0.2235287,-0.35693 -0.2161483,-0.82719"
           id="path9290"
           style="fill:#a80030;fill-opacity:1;stroke-width:0.527191" />
        <path
           i:knockout="Off"
           fill="#a80030"
           d="m 1.3081834,287.65418 c 0.2472518,-0.75758 0.291536,-1.21202 0.3859045,-1.65118 -0.6816606,0.87198 -0.3142071,1.05808 -0.3859045,1.65118"
           id="path9292"
           style="fill:#a80030;fill-opacity:1;stroke-width:0.527191" />
      </g>
    </g>
  </g>
</svg>
